m 3,G 3,g 3,M 3
m 3,G 3,g 3,M 3
m 3,G 3,g 3,M 3
m 3,G 3,g 3,M 3
m 3,G 3,g 3,M 3
m -3,G -3,g -3,M -3
m -3,G -3,g -3,M -3
m -3,G -3,g -3,M -3
m -3,G -3,g -3,M -3
m -3,G -3,g -3,M -3
m -3,G -3,g -3,M -3
m -3,G -3,g -3,M -3
m -3,G -3,g -3,M -3
m -3,G -3,g -3,M -3
m -3,G -3,g -3,M -3
m 3,G 3,g 3,M 3
m 3,G 3,g 3,M 3
m 3,G 3,g 3,M 3
m 3,G 3,g 3,M 3
m 3,G 3,g 3,M 3
m 3,G 3,g 3,M 3
m 3,G 3,g 3,M 3
m 3,G 3,g 3,M 3
m 3,G 3,g 3,M 3
m 3,G 3,g 3,M 3
m -3,G -3,g -3,M -3
m -3,G -3,g -3,M -3
m -3,G -3,g -3,M -3
m -3,G -3,g -3,M -3
m -3,G -3,g -3,M -3
m -3,G -3,g -3,M -3
m -3,G -3,g -3,M -3
m -3,G -3,g -3,M -3
m -3,G -3,g -3,M -3
m -3,G -3,g -3,M -3
m 3,G 3,g 3,M 3
m 3,G 3,g 3,M 3
m 3,G 3,g 3,M 3
m 3,G 3,g 3,M 3
m 3,G 3,g 3,M 3
m 3,G 3,g 3,M 3
m 3,G 3,g 3,M 3
m 3,G 3,g 3,M 3
m 3,G 3,g 3,M 3
m 3,G 3,g 3,M 3
m -3,G -3,g -3,M -3
m -3,G -3,g -3,M -3
m -3,G -3,g -3,M -3
m -3,G -3,g -3,M -3
m -3,G -3,g -3,M -3
m -3,G -3,g -3,M -3
m -3,G -3,g -3,M -3
m -3,G -3,g -3,M -3
m -3,G -3,g -3,M -3
m -3,G -3,g -3,M -3
m 3,G 3,g 3,M 3
m 3,G 3,g 3,M 3
m 3,G 3,g 3,M 3
m 3,G 3,g 3,M 3
m 3,G 3,g 3,M 3
m 3,G 3,g 3,M 3
m 3,G 3,g 3,M 3
m 3,G 3,g 3,M 3
m 3,G 3,g 3,M 3
m 3,G 3,g 3,M 3
m -3,G -3,g -3,M -3
m -3,G -3,g -3,M -3
m -3,G -3,g -3,M -3
m -3,G -3,g -3,M -3
m -3,G -3,g -3,M -3
m -3,G -3,g -3,M -3
m -3,G -3,g -3,M -3
m -3,G -3,g -3,M -3
m -3,G -3,g -3,M -3
m -3,G -3,g -3,M -3
m 3,G 3,g 3,M 3
m 3,G 3,g 3,M 3
m 3,G 3,g 3,M 3
m 3,G 3,g 3,M 3
m 3,G 3,g 3,M 3
m 3,G 3,g 3,M 3
m 3,G 3,g 3,M 3
m 3,G 3,g 3,M 3
m 3,G 3,g 3,M 3
m 3,G 3,g 3,M 3
m -3,G -3,g -3,M -3
m -3,G -3,g -3,M -3
m -3,G -3,g -3,M -3
m -3,G -3,g -3,M -3
m -3,G -3,g -3,M -3
a 1,f 10
a 1,f 10
a 1,f 10
a 1,f 10
a 1,f 10
a 1,f 10
a 1,f 10
a 1,f 10
a 1,f 10
a 1,f 10
a 1,f 10
a 1,f 10
a 1,f 10
a 1,f 10
a 1,f 10
v 5
v 5
v 5
v 5
f 5
f 5
f 5
f 5
v 5
v 5
v 5
v 5
f 5
f 5
f 5
f 5
v 5
v 5
v 5
v 5
f 5
f 5
f 5
f 5
v 5
v 5
v 5
v 5
f 5
f 5
f 5
f 5
z 1
z 1
z 1
z 1
z 1
z 1,v 20,x 1
z 1,v 20,x 1
z 1,v 20,x 1
z 1,v 20,x 1
z 1,v 20,x 1
z 1,v 10,x 1
z 1,v 10,x 1
z 1,v 10,x 1
z 1,v 10,x 1
z 1,v 10,x 1
= 0
= 0
= 0
q 0
= 0
= 0
= 0
= 0
= 0
= 0
= 0
v 1,h 1,s 1
v 1,h 1,s 1
s 1
s 1
s 1
s 1
s 1
s 1
s 1
s 1
w 2
w 2
w 2
w 2
w 2
w 2
w 2
w 2
w 2
w 2
w 2
w 2
w 2
w 2
w 2
w 2
w 2
w 2
w 2
w 2
w 2
w 2
w 2
w 2
w 2
w 2
= 0
= 0
= 0
= 0
= 0
q 0